src/fpga/DE10_NANO_D8M_RTL/kevin/transcript
# Loading project motion_capture_kevin
vsim work.T
# vsim work.T 
# Start time: 10:55:24 on Apr 19,2022
# Loading work.T
# Loading work.FIND_MULTI_POINTS
# ** Error: (vsim-3043) Unresolved reference to 'break'.
#    Time: 0 ns  Iteration: 0  Instance: /T/UUT File: /home/kevin/src/motion_capture/src/fpga/DE10_NANO_D8M_RTL/kevin/FIND_MULTI_POINTS.v Line: 82
# Error loading design
# End time: 10:55:24 on Apr 19,2022, Elapsed time: 0:00:00
# Errors: 1, Warnings: 1
# Compile of FIND_MULTI_POINTS.v was successful.
# Compile of T_FIND_MULTI_POINTS.v was successful.
# 2 compiles, 0 failed with no errors.
# Compile of FIND_MULTI_POINTS.v was successful.
# Compile of T_FIND_MULTI_POINTS.v was successful.
# 2 compiles, 0 failed with no errors.
vsim work.T
# vsim work.T 
# Start time: 10:58:24 on Apr 19,2022
# Loading work.T
# Loading work.FIND_MULTI_POINTS
run
run -all
# ========== LIST:  0 ====================
# N:  1    SX: 19    SY:  2    DX: 19    DY:  3
# merge
# N:  2    SX: 19    SY:  3    DX: 19    DY:  4
# merge
# N:  3    SX: 19    SY:  4    DX: 17    DY:  5
# merge
# N:  4    SX: 19    SY:  5    DX: 17    DY:  6
# merge
# N:  5    SX: 19    SY:  6    DX: 17    DY:  7
# merge
# N:  6    SX: 19    SY:  7    DX: 17    DY:  8
# merge
# N:  7    SX: 19    SY:  8    DX: 17    DY:  9
# merge
# N:  8    SX: 19    SY:  9    DX: 17    DY: 10
# merge
# N:  9    SX: 19    SY: 10    DX: 17    DY: 11
# merge
# N: 10    SX: 19    SY: 11    DX: 17    DY: 12
# merge
# N: 11    SX: 19    SY: 12    DX: 17    DY: 13
# merge
# N: 12    SX: 19    SY: 13    DX: 19    DY: 14
# merge
# N: 13    SX: 19    SY: 14    DX: 19    DY: 15
# merge
# N: 14    SX: 19    SY: 15    DX: 19    DY: 16
# merge
# N: 15    SX: 19    SY: 16    DX: 19    DY: 17
# merge
# ============= result =================
# p:  0    X: 17    Y: 10
# ** Note: $stop    : /home/kevin/src/motion_capture/src/fpga/DE10_NANO_D8M_RTL/kevin/T_FIND_MULTI_POINTS.v(80)
#    Time: 2010200 ns  Iteration: 0  Instance: /T
# Break in Module T at /home/kevin/src/motion_capture/src/fpga/DE10_NANO_D8M_RTL/kevin/T_FIND_MULTI_POINTS.v line 80
# Compile of FIND_MULTI_POINTS.v was successful.
# Compile of T_FIND_MULTI_POINTS.v was successful.
# 2 compiles, 0 failed with no errors.
# Load canceled
restart
# ** Note: (vsim-12125) Error and warning message counts have been reset to '0' because of 'restart'.
# Loading work.T
# Loading work.FIND_MULTI_POINTS
run -all
# ========== LIST:  0 ====================
# N:  1    SX: 19    SY:  2    DX: 19    DY:  3
# merge
# N:  2    SX: 19    SY:  3    DX: 19    DY:  4
# merge
# N:  3    SX: 19    SY:  4    DX: 17    DY:  5
# merge
# N:  4    SX: 19    SY:  5    DX: 17    DY:  6
# merge
# N:  5    SX: 19    SY:  6    DX: 17    DY:  7
# merge
# N:  6    SX: 19    SY:  7    DX: 17    DY:  8
# merge
# N:  7    SX: 19    SY:  8    DX: 17    DY:  9
# merge
# N:  8    SX: 19    SY:  9    DX: 17    DY: 10
# merge
# N:  9    SX: 19    SY: 10    DX: 17    DY: 11
# merge
# N: 10    SX: 19    SY: 11    DX: 17    DY: 12
# merge
# N: 11    SX: 19    SY: 12    DX: 17    DY: 13
# merge
# N: 12    SX: 19    SY: 13    DX: 19    DY: 14
# merge
# N: 13    SX: 19    SY: 14    DX: 19    DY: 15
# merge
# N: 14    SX: 19    SY: 15    DX: 19    DY: 16
# merge
# N: 15    SX: 19    SY: 16    DX: 19    DY: 17
# merge
# ============= result =================
# p:  0    X: 17    Y: 10
# ** Note: $stop    : /home/kevin/src/motion_capture/src/fpga/DE10_NANO_D8M_RTL/kevin/T_FIND_MULTI_POINTS.v(80)
#    Time: 2010200 ns  Iteration: 0  Instance: /T
# Break in Module T at /home/kevin/src/motion_capture/src/fpga/DE10_NANO_D8M_RTL/kevin/T_FIND_MULTI_POINTS.v line 80
# Load canceled
# Compile of FIND_MULTI_POINTS.v was successful.
# Compile of T_FIND_MULTI_POINTS.v was successful.
# 2 compiles, 0 failed with no errors.
restart
# ** Note: (vsim-12125) Error and warning message counts have been reset to '0' because of 'restart'.
# Loading work.T
# Loading work.FIND_MULTI_POINTS
run -all
# link  0 to  0
# link  1 to  0
# link  2 to  0
# link  3 to  0
# link  4 to  0
# link  5 to  0
# link  6 to  0
# link  7 to  0
# link  8 to  0
# link  9 to  0
# link 10 to  0
# link 11 to  0
# link 12 to  0
# link 13 to  0
# link 14 to  0
# link 15 to  0
# ========== LIST:  0 ====================
# N:  1    SX: 19    SY:  2    DX: 19    DY:  3
# merge
# N:  2    SX: 19    SY:  3    DX: 19    DY:  4
# merge
# N:  3    SX: 19    SY:  4    DX: 17    DY:  5
# merge
# N:  4    SX: 19    SY:  5    DX: 17    DY:  6
# merge
# N:  5    SX: 19    SY:  6    DX: 17    DY:  7
# merge
# N:  6    SX: 19    SY:  7    DX: 17    DY:  8
# merge
# N:  7    SX: 19    SY:  8    DX: 17    DY:  9
# merge
# N:  8    SX: 19    SY:  9    DX: 17    DY: 10
# merge
# N:  9    SX: 19    SY: 10    DX: 17    DY: 11
# merge
# N: 10    SX: 19    SY: 11    DX: 17    DY: 12
# merge
# N: 11    SX: 19    SY: 12    DX: 17    DY: 13
# merge
# N: 12    SX: 19    SY: 13    DX: 19    DY: 14
# merge
# N: 13    SX: 19    SY: 14    DX: 19    DY: 15
# merge
# N: 14    SX: 19    SY: 15    DX: 19    DY: 16
# merge
# N: 15    SX: 19    SY: 16    DX: 19    DY: 17
# merge
# ============= result =================
# p:  0    X: 17    Y: 10
# ** Note: $stop    : /home/kevin/src/motion_capture/src/fpga/DE10_NANO_D8M_RTL/kevin/T_FIND_MULTI_POINTS.v(80)
#    Time: 2010200 ns  Iteration: 0  Instance: /T
# Break in Module T at /home/kevin/src/motion_capture/src/fpga/DE10_NANO_D8M_RTL/kevin/T_FIND_MULTI_POINTS.v line 80
restart
# Compile of FIND_MULTI_POINTS.v was successful.
# Compile of T_FIND_MULTI_POINTS.v was successful.
# 2 compiles, 0 failed with no errors.
restart
# ** Note: (vsim-12125) Error and warning message counts have been reset to '0' because of 'restart'.
# Loading work.T
# Loading work.FIND_MULTI_POINTS
run -all
# link  0 to  0
# link  1 to  0
# link  2 to  0
# link  3 to  0
# link  4 to  0
# link  5 to  0
# link  6 to  0
# link  7 to  0
# link  8 to  0
# link  9 to  0
# link 10 to  0
# link 11 to  0
# link 12 to  0
# link 13 to  0
# link 14 to  0
# link 15 to  0
# ========== LIST:  0 ====================
# N:  1    SX: 19    SY:  2    DX: 19    DY:  3
# merge
# N:  2    SX: 19    SY:  3    DX: 19    DY:  4
# merge
# N:  3    SX: 19    SY:  4    DX: 17    DY:  5
# merge
# N:  4    SX: 19    SY:  5    DX: 17    DY:  6
# merge
# N:  5    SX: 19    SY:  6    DX: 17    DY:  7
# merge
# N:  6    SX: 19    SY:  7    DX: 17    DY:  8
# merge
# N:  7    SX: 19    SY:  8    DX: 17    DY:  9
# merge
# N:  8    SX: 19    SY:  9    DX: 17    DY: 10
# merge
# N:  9    SX: 19    SY: 10    DX: 17    DY: 11
# merge
# N: 10    SX: 19    SY: 11    DX: 17    DY: 12
# merge
# N: 11    SX: 19    SY: 12    DX: 17    DY: 13
# merge
# N: 12    SX: 19    SY: 13    DX: 19    DY: 14
# merge
# N: 13    SX: 19    SY: 14    DX: 19    DY: 15
# merge
# N: 14    SX: 19    SY: 15    DX: 19    DY: 16
# merge
# N: 15    SX: 19    SY: 16    DX: 19    DY: 17
# merge
# ============= result =================
# p:  0    X: 17    Y: 10
# ** Note: $stop    : /home/kevin/src/motion_capture/src/fpga/DE10_NANO_D8M_RTL/kevin/T_FIND_MULTI_POINTS.v(80)
#    Time: 2010200 ns  Iteration: 0  Instance: /T
# Break in Module T at /home/kevin/src/motion_capture/src/fpga/DE10_NANO_D8M_RTL/kevin/T_FIND_MULTI_POINTS.v line 80
# Compile of FIND_MULTI_POINTS.v was successful.
# Compile of T_FIND_MULTI_POINTS.v was successful.
# 2 compiles, 0 failed with no errors.
restart
# ** Note: (vsim-12125) Error and warning message counts have been reset to '0' because of 'restart'.
# Loading work.T
# Loading work.FIND_MULTI_POINTS
run -all
# link  0 to  0
# link  1 to  0
# link  2 to  0
# link  3 to  0
# link  4 to  0
# link  5 to  0
# link  6 to  0
# link  7 to  0
# link  8 to  0
# link  9 to  0
# link 10 to  0
# link 11 to  0
# link 12 to  0
# link 13 to  0
# link 14 to  0
# link 15 to  0
# ========== LIST:  0 ====================
# N:  1    SX: 19    SY:  2    DX: 19    DY:  3
# merge
# N:  2    SX: 19    SY:  3    DX: 19    DY:  4
# merge
# N:  3    SX: 19    SY:  4    DX: 17    DY:  5
# merge
# N:  4    SX: 19    SY:  5    DX: 17    DY:  6
# merge
# N:  5    SX: 19    SY:  6    DX: 17    DY:  7
# merge
# N:  6    SX: 19    SY:  7    DX: 17    DY:  8
# merge
# N:  7    SX: 19    SY:  8    DX: 17    DY:  9
# merge
# N:  8    SX: 19    SY:  9    DX: 17    DY: 10
# merge
# N:  9    SX: 19    SY: 10    DX: 17    DY: 11
# merge
# N: 10    SX: 19    SY: 11    DX: 17    DY: 12
# merge
# N: 11    SX: 19    SY: 12    DX: 17    DY: 13
# merge
# N: 12    SX: 19    SY: 13    DX: 19    DY: 14
# merge
# N: 13    SX: 19    SY: 14    DX: 19    DY: 15
# merge
# N: 14    SX: 19    SY: 15    DX: 19    DY: 16
# merge
# N: 15    SX: 19    SY: 16    DX: 19    DY: 17
# merge
# ============= result =================
# p:  0    X: 17    Y: 10
# ** Note: $stop    : /home/kevin/src/motion_capture/src/fpga/DE10_NANO_D8M_RTL/kevin/T_FIND_MULTI_POINTS.v(80)
#    Time: 2010200 ns  Iteration: 0  Instance: /T
# Break in Module T at /home/kevin/src/motion_capture/src/fpga/DE10_NANO_D8M_RTL/kevin/T_FIND_MULTI_POINTS.v line 80
# Compile of FIND_MULTI_POINTS.v was successful.
# Compile of T_FIND_MULTI_POINTS.v was successful.
# 2 compiles, 0 failed with no errors.
restart
# ** Note: (vsim-12125) Error and warning message counts have been reset to '0' because of 'restart'.
# Loading work.T
# Loading work.FIND_MULTI_POINTS
run -all
# link list: 0 to group: 0
# link list: 1 to group: 0
# link list: 2 to group: 0
# link list: 3 to group: 0
# link list: 4 to group: 0
# link list: 5 to group: 0
# link list: 6 to group: 0
# link list: 7 to group: 0
# link list: 8 to group: 0
# link list: 9 to group: 0
# link list:10 to group: 0
# link list:11 to group: 0
# link list:12 to group: 0
# link list:13 to group: 0
# link list:14 to group: 0
# link list:15 to group: 0
# ============= result =================
# ** Note: $stop    : /home/kevin/src/motion_capture/src/fpga/DE10_NANO_D8M_RTL/kevin/T_FIND_MULTI_POINTS.v(80)
#    Time: 2010200 ns  Iteration: 0  Instance: /T
# Break in Module T at /home/kevin/src/motion_capture/src/fpga/DE10_NANO_D8M_RTL/kevin/T_FIND_MULTI_POINTS.v line 80
# Compile of FIND_MULTI_POINTS.v was successful.
# Compile of T_FIND_MULTI_POINTS.v was successful.
# 2 compiles, 0 failed with no errors.
restart
# ** Note: (vsim-12125) Error and warning message counts have been reset to '0' because of 'restart'.
# Loading work.T
# Loading work.FIND_MULTI_POINTS
run -all
# link list: 0 to group: 0
# link list: 1 to group: 1
# link list: 2 to group: 2
# link list: 3 to group: 3
# link list: 4 to group: 4
# link list: 5 to group: 5
# link list: 6 to group: 6
# link list: 7 to group: 7
# link list: 8 to group: 0
# link list: 9 to group: 1
# link list:10 to group: 2
# link list:11 to group: 3
# link list:12 to group: 4
# link list:13 to group: 5
# link list:14 to group: 6
# link list:15 to group: 7
# ============= result =================
# ** Note: $stop    : /home/kevin/src/motion_capture/src/fpga/DE10_NANO_D8M_RTL/kevin/T_FIND_MULTI_POINTS.v(80)
#    Time: 2010200 ns  Iteration: 0  Instance: /T
# Break in Module T at /home/kevin/src/motion_capture/src/fpga/DE10_NANO_D8M_RTL/kevin/T_FIND_MULTI_POINTS.v line 80
# Compile of FIND_MULTI_POINTS.v was successful.
# Compile of T_FIND_MULTI_POINTS.v was successful.
# 2 compiles, 0 failed with no errors.
restart
# ** Note: (vsim-12125) Error and warning message counts have been reset to '0' because of 'restart'.
# Loading work.T
# Loading work.FIND_MULTI_POINTS
run -all
# link list: 0 to group: 0
# link list: 1 to group: 1
# link list: 2 to group: 2
# link list: 3 to group: 3
# link list: 4 to group: 4
# link list: 5 to group: 5
# link list: 6 to group: 6
# link list: 7 to group: 7
# link list: 8 to group: 0
# link list: 9 to group: 1
# link list:10 to group: 2
# link list:11 to group: 3
# link list:12 to group: 4
# link list:13 to group: 5
# link list:14 to group: 6
# link list:15 to group: 7
# POINT_GROUP: 0
# ============= result =================
# ** Note: $stop    : /home/kevin/src/motion_capture/src/fpga/DE10_NANO_D8M_RTL/kevin/T_FIND_MULTI_POINTS.v(80)
#    Time: 2010200 ns  Iteration: 0  Instance: /T
# Break in Module T at /home/kevin/src/motion_capture/src/fpga/DE10_NANO_D8M_RTL/kevin/T_FIND_MULTI_POINTS.v line 80
# Compile of FIND_MULTI_POINTS.v was successful.
# Compile of T_FIND_MULTI_POINTS.v was successful.
# 2 compiles, 0 failed with no errors.
restart
# ** Note: (vsim-12125) Error and warning message counts have been reset to '0' because of 'restart'.
# Loading work.T
# Loading work.FIND_MULTI_POINTS
run -all
# link list: 0 to group: 0
# link list: 1 to group: 0
# link list: 2 to group: 0
# link list: 3 to group: 0
# link list: 4 to group: 0
# link list: 5 to group: 0
# link list: 6 to group: 0
# link list: 7 to group: 0
# link list: 8 to group: 0
# link list: 9 to group: 0
# link list:10 to group: 0
# link list:11 to group: 0
# link list:12 to group: 0
# link list:13 to group: 0
# link list:14 to group: 0
# link list:15 to group: 0
# POINT_GROUP: 0
# ============= result =================
# ** Note: $stop    : /home/kevin/src/motion_capture/src/fpga/DE10_NANO_D8M_RTL/kevin/T_FIND_MULTI_POINTS.v(80)
#    Time: 2010200 ns  Iteration: 0  Instance: /T
# Break in Module T at /home/kevin/src/motion_capture/src/fpga/DE10_NANO_D8M_RTL/kevin/T_FIND_MULTI_POINTS.v line 80
# Compile of FIND_MULTI_POINTS.v was successful.
# Compile of T_FIND_MULTI_POINTS.v was successful.
# 2 compiles, 0 failed with no errors.
restart
# ** Note: (vsim-12125) Error and warning message counts have been reset to '0' because of 'restart'.
# Loading work.T
# Loading work.FIND_MULTI_POINTS
run -all
# link list: 0 to group: 0
# link list: 1 to group: 0
# link list: 2 to group: 0
# link list: 3 to group: 0
# link list: 4 to group: 0
# link list: 5 to group: 0
# link list: 6 to group: 0
# link list: 7 to group: 0
# link list: 8 to group: 0
# link list: 9 to group: 0
# link list:10 to group: 0
# link list:11 to group: 0
# link list:12 to group: 0
# link list:13 to group: 0
# link list:14 to group: 0
# link list:15 to group: 0
# POINT_GROUP: 0
# ============= result =================
# ** Note: $stop    : /home/kevin/src/motion_capture/src/fpga/DE10_NANO_D8M_RTL/kevin/T_FIND_MULTI_POINTS.v(80)
#    Time: 2010200 ns  Iteration: 0  Instance: /T
# Break in Module T at /home/kevin/src/motion_capture/src/fpga/DE10_NANO_D8M_RTL/kevin/T_FIND_MULTI_POINTS.v line 80
# Compile of FIND_MULTI_POINTS.v was successful.
# Compile of T_FIND_MULTI_POINTS.v was successful.
# 2 compiles, 0 failed with no errors.
restart
# ** Note: (vsim-12125) Error and warning message counts have been reset to '0' because of 'restart'.
# Loading work.T
# Loading work.FIND_MULTI_POINTS
run -all
# link list: 0 to group: 0
# new group:  0
# link list: 1 to group: 1
# new group:  1
# link list: 2 to group: 2
# new group:  2
# link list: 3 to group: 3
# new group:  3
# link list: 4 to group: 4
# new group:  4
# link list: 5 to group: 5
# new group:  5
# link list: 6 to group: 6
# new group:  6
# link list: 7 to group: 7
# new group:  7
# link list: 8 to group: 0
# new group:  0
# link list: 9 to group: 1
# new group:  1
# link list:10 to group: 2
# new group:  2
# link list:11 to group: 3
# new group:  3
# link list:12 to group: 4
# new group:  4
# link list:13 to group: 5
# new group:  5
# link list:14 to group: 6
# new group:  6
# link list:15 to group: 7
# new group:  7
# POINT_GROUP: 0
# ============= result =================
# ** Note: $stop    : /home/kevin/src/motion_capture/src/fpga/DE10_NANO_D8M_RTL/kevin/T_FIND_MULTI_POINTS.v(80)
#    Time: 2010200 ns  Iteration: 0  Instance: /T
# Break in Module T at /home/kevin/src/motion_capture/src/fpga/DE10_NANO_D8M_RTL/kevin/T_FIND_MULTI_POINTS.v line 80
restart
run -all
# link list: 0 to group: 0
# new group:  0
# link list: 1 to group: 1
# new group:  1
# link list: 2 to group: 2
# new group:  2
# link list: 3 to group: 3
# new group:  3
# link list: 4 to group: 4
# new group:  4
# link list: 5 to group: 5
# new group:  5
# link list: 6 to group: 6
# new group:  6
# link list: 7 to group: 7
# new group:  7
# link list: 8 to group: 0
# new group:  0
# link list: 9 to group: 1
# new group:  1
# link list:10 to group: 2
# new group:  2
# link list:11 to group: 3
# new group:  3
# link list:12 to group: 4
# new group:  4
# link list:13 to group: 5
# new group:  5
# link list:14 to group: 6
# new group:  6
# link list:15 to group: 7
# new group:  7
# POINT_GROUP: 0
# ============= result =================
# ** Note: $stop    : /home/kevin/src/motion_capture/src/fpga/DE10_NANO_D8M_RTL/kevin/T_FIND_MULTI_POINTS.v(80)
#    Time: 2010200 ns  Iteration: 0  Instance: /T
# Break in Module T at /home/kevin/src/motion_capture/src/fpga/DE10_NANO_D8M_RTL/kevin/T_FIND_MULTI_POINTS.v line 80
# Compile of FIND_MULTI_POINTS.v was successful.
# Compile of T_FIND_MULTI_POINTS.v was successful.
# 2 compiles, 0 failed with no errors.
restart
# ** Note: (vsim-12125) Error and warning message counts have been reset to '0' because of 'restart'.
# Loading work.T
# Loading work.FIND_MULTI_POINTS
run -all
# link list: 0 to group: 0
# new_group: 0 POINT_GROUP:0 
# link list: 1 to group: 1
# new_group: 1 POINT_GROUP:1 
# link list: 2 to group: 2
# new_group: 2 POINT_GROUP:2 
# link list: 3 to group: 3
# new_group: 3 POINT_GROUP:3 
# link list: 4 to group: 4
# new_group: 4 POINT_GROUP:4 
# link list: 5 to group: 5
# new_group: 5 POINT_GROUP:5 
# link list: 6 to group: 6
# new_group: 6 POINT_GROUP:6 
# link list: 7 to group: 7
# new_group: 7 POINT_GROUP:7 
# link list: 8 to group: 0
# new_group: 0 POINT_GROUP:0 
# link list: 9 to group: 1
# new_group: 1 POINT_GROUP:1 
# link list:10 to group: 2
# new_group: 2 POINT_GROUP:2 
# link list:11 to group: 3
# new_group: 3 POINT_GROUP:3 
# link list:12 to group: 4
# new_group: 4 POINT_GROUP:4 
# link list:13 to group: 5
# new_group: 5 POINT_GROUP:5 
# link list:14 to group: 6
# new_group: 6 POINT_GROUP:6 
# link list:15 to group: 7
# new_group: 7 POINT_GROUP:7 
# POINT_GROUP: 0
# ============= result =================
# ** Note: $stop    : /home/kevin/src/motion_capture/src/fpga/DE10_NANO_D8M_RTL/kevin/T_FIND_MULTI_POINTS.v(80)
#    Time: 2010200 ns  Iteration: 0  Instance: /T
# Break in Module T at /home/kevin/src/motion_capture/src/fpga/DE10_NANO_D8M_RTL/kevin/T_FIND_MULTI_POINTS.v line 80
# Compile of FIND_MULTI_POINTS.v was successful.
# Compile of T_FIND_MULTI_POINTS.v was successful.
# 2 compiles, 0 failed with no errors.
restart
# ** Note: (vsim-12125) Error and warning message counts have been reset to '0' because of 'restart'.
# Loading work.T
# Loading work.FIND_MULTI_POINTS
run -all
# ================= find group ====================
# link list: 0 to group: 0
# new_group: 0 POINT_GROUP:0 
# ================= find group ====================
# link list: 1 to group: 1
# new_group: 1 POINT_GROUP:1 
# ================= find group ====================
# link list: 2 to group: 2
# new_group: 2 POINT_GROUP:2 
# ================= find group ====================
# link list: 3 to group: 3
# new_group: 3 POINT_GROUP:3 
# ================= find group ====================
# link list: 4 to group: 4
# new_group: 4 POINT_GROUP:4 
# ================= find group ====================
# link list: 5 to group: 5
# new_group: 5 POINT_GROUP:5 
# ================= find group ====================
# link list: 6 to group: 6
# new_group: 6 POINT_GROUP:6 
# ================= find group ====================
# link list: 7 to group: 7
# new_group: 7 POINT_GROUP:7 
# ================= find group ====================
# link list: 8 to group: 0
# new_group: 0 POINT_GROUP:0 
# ================= find group ====================
# link list: 9 to group: 1
# new_group: 1 POINT_GROUP:1 
# ================= find group ====================
# link list:10 to group: 2
# new_group: 2 POINT_GROUP:2 
# ================= find group ====================
# link list:11 to group: 3
# new_group: 3 POINT_GROUP:3 
# ================= find group ====================
# link list:12 to group: 4
# new_group: 4 POINT_GROUP:4 
# ================= find group ====================
# link list:13 to group: 5
# new_group: 5 POINT_GROUP:5 
# ================= find group ====================
# link list:14 to group: 6
# new_group: 6 POINT_GROUP:6 
# ================= find group ====================
# link list:15 to group: 7
# new_group: 7 POINT_GROUP:7 
# POINT_GROUP: 0
# ============= result =================
# ** Note: $stop    : /home/kevin/src/motion_capture/src/fpga/DE10_NANO_D8M_RTL/kevin/T_FIND_MULTI_POINTS.v(80)
#    Time: 2010200 ns  Iteration: 0  Instance: /T
# Break in Module T at /home/kevin/src/motion_capture/src/fpga/DE10_NANO_D8M_RTL/kevin/T_FIND_MULTI_POINTS.v line 80
# Compile of FIND_MULTI_POINTS.v was successful.
# Compile of T_FIND_MULTI_POINTS.v was successful.
# 2 compiles, 0 failed with no errors.
restart
# ** Note: (vsim-12125) Error and warning message counts have been reset to '0' because of 'restart'.
# Loading work.T
# Loading work.FIND_MULTI_POINTS
run -all
# ================= new_point ====================
# h_min:    x h_max:    x h_point:   19 v_mid:    x v_point:    2
# link list: 0 to group: 0
# new_group: 0 POINT_GROUP:0 
# ================= new_point ====================
# h_min:    x h_max:    x h_point:   19 v_mid:    2 v_point:    3
# h_min:    x h_max:    x h_point:   19 v_mid:    x v_point:    3
# link list: 1 to group: 1
# new_group: 1 POINT_GROUP:1 
# ================= new_point ====================
# h_min:    x h_max:    x h_point:   19 v_mid:    2 v_point:    4
# h_min:    x h_max:    x h_point:   19 v_mid:    3 v_point:    4
# h_min:    x h_max:    x h_point:   19 v_mid:    x v_point:    4
# link list: 2 to group: 2
# new_group: 2 POINT_GROUP:2 
# ================= new_point ====================
# h_min:    x h_max:    x h_point:   17 v_mid:    2 v_point:    5
# h_min:    x h_max:    x h_point:   17 v_mid:    3 v_point:    5
# h_min:    x h_max:    x h_point:   17 v_mid:    4 v_point:    5
# h_min:    x h_max:    x h_point:   17 v_mid:    x v_point:    5
# link list: 3 to group: 3
# new_group: 3 POINT_GROUP:3 
# ================= new_point ====================
# h_min:    x h_max:    x h_point:   17 v_mid:    2 v_point:    6
# h_min:    x h_max:    x h_point:   17 v_mid:    3 v_point:    6
# h_min:    x h_max:    x h_point:   17 v_mid:    4 v_point:    6
# h_min:    x h_max:    x h_point:   17 v_mid:    5 v_point:    6
# h_min:    x h_max:    x h_point:   17 v_mid:    x v_point:    6
# link list: 4 to group: 4
# new_group: 4 POINT_GROUP:4 
# ================= new_point ====================
# h_min:    x h_max:    x h_point:   17 v_mid:    2 v_point:    7
# h_min:    x h_max:    x h_point:   17 v_mid:    3 v_point:    7
# h_min:    x h_max:    x h_point:   17 v_mid:    4 v_point:    7
# h_min:    x h_max:    x h_point:   17 v_mid:    5 v_point:    7
# h_min:    x h_max:    x h_point:   17 v_mid:    x v_point:    7
# h_min:    x h_max:    x h_point:   17 v_mid:    x v_point:    7
# link list: 5 to group: 5
# new_group: 5 POINT_GROUP:5 
# ================= new_point ====================
# h_min:    x h_max:    x h_point:   17 v_mid:    2 v_point:    8
# h_min:    x h_max:    x h_point:   17 v_mid:    3 v_point:    8
# h_min:    x h_max:    x h_point:   17 v_mid:    4 v_point:    8
# h_min:    x h_max:    x h_point:   17 v_mid:    5 v_point:    8
# h_min:    x h_max:    x h_point:   17 v_mid:    x v_point:    8
# h_min:    x h_max:    x h_point:   17 v_mid:    x v_point:    8
# h_min:    x h_max:    x h_point:   17 v_mid:    x v_point:    8
# link list: 6 to group: 6
# new_group: 6 POINT_GROUP:6 
# ================= new_point ====================
# h_min:    x h_max:    x h_point:   17 v_mid:    2 v_point:    9
# h_min:    x h_max:    x h_point:   17 v_mid:    3 v_point:    9
# h_min:    x h_max:    x h_point:   17 v_mid:    4 v_point:    9
# h_min:    x h_max:    x h_point:   17 v_mid:    5 v_point:    9
# h_min:    x h_max:    x h_point:   17 v_mid:    x v_point:    9
# h_min:    x h_max:    x h_point:   17 v_mid:    x v_point:    9
# h_min:    x h_max:    x h_point:   17 v_mid:    x v_point:    9
# h_min:    x h_max:    x h_point:   17 v_mid:    x v_point:    9
# link list: 7 to group: 7
# new_group: 7 POINT_GROUP:7 
# ================= new_point ====================
# h_min:    x h_max:    x h_point:   17 v_mid:    2 v_point:   10
# link list: 8 to group: 0
# new_group: 0 POINT_GROUP:0 
# ================= new_point ====================
# h_min:    x h_max:    x h_point:   17 v_mid:   10 v_point:   11
# h_min:    x h_max:    x h_point:   17 v_mid:    3 v_point:   11
# link list: 9 to group: 1
# new_group: 1 POINT_GROUP:1 
# ================= new_point ====================
# h_min:    x h_max:    x h_point:   17 v_mid:   10 v_point:   12
# h_min:    x h_max:    x h_point:   17 v_mid:   11 v_point:   12
# h_min:    x h_max:    x h_point:   17 v_mid:    4 v_point:   12
# link list:10 to group: 2
# new_group: 2 POINT_GROUP:2 
# ================= new_point ====================
# h_min:    x h_max:    x h_point:   17 v_mid:   10 v_point:   13
# h_min:    x h_max:    x h_point:   17 v_mid:   11 v_point:   13
# h_min:    x h_max:    x h_point:   17 v_mid:   12 v_point:   13
# h_min:    x h_max:    x h_point:   17 v_mid:    5 v_point:   13
# link list:11 to group: 3
# new_group: 3 POINT_GROUP:3 
# ================= new_point ====================
# h_min:    x h_max:    x h_point:   19 v_mid:   10 v_point:   14
# h_min:    x h_max:    x h_point:   19 v_mid:   11 v_point:   14
# h_min:    x h_max:    x h_point:   19 v_mid:   12 v_point:   14
# h_min:    x h_max:    x h_point:   19 v_mid:   13 v_point:   14
# h_min:    x h_max:    x h_point:   19 v_mid:    x v_point:   14
# link list:12 to group: 4
# new_group: 4 POINT_GROUP:4 
# ================= new_point ====================
# h_min:    x h_max:    x h_point:   19 v_mid:   10 v_point:   15
# h_min:    x h_max:    x h_point:   19 v_mid:   11 v_point:   15
# h_min:    x h_max:    x h_point:   19 v_mid:   12 v_point:   15
# h_min:    x h_max:    x h_point:   19 v_mid:   13 v_point:   15
# h_min:    x h_max:    x h_point:   19 v_mid:    x v_point:   15
# h_min:    x h_max:    x h_point:   19 v_mid:    x v_point:   15
# link list:13 to group: 5
# new_group: 5 POINT_GROUP:5 
# ================= new_point ====================
# h_min:    x h_max:    x h_point:   19 v_mid:   10 v_point:   16
# h_min:    x h_max:    x h_point:   19 v_mid:   11 v_point:   16
# h_min:    x h_max:    x h_point:   19 v_mid:   12 v_point:   16
# h_min:    x h_max:    x h_point:   19 v_mid:   13 v_point:   16
# h_min:    x h_max:    x h_point:   19 v_mid:    x v_point:   16
# h_min:    x h_max:    x h_point:   19 v_mid:    x v_point:   16
# h_min:    x h_max:    x h_point:   19 v_mid:    x v_point:   16
# link list:14 to group: 6
# new_group: 6 POINT_GROUP:6 
# ================= new_point ====================
# h_min:    x h_max:    x h_point:   19 v_mid:   10 v_point:   17
# h_min:    x h_max:    x h_point:   19 v_mid:   11 v_point:   17
# h_min:    x h_max:    x h_point:   19 v_mid:   12 v_point:   17
# h_min:    x h_max:    x h_point:   19 v_mid:   13 v_point:   17
# h_min:    x h_max:    x h_point:   19 v_mid:    x v_point:   17
# h_min:    x h_max:    x h_point:   19 v_mid:    x v_point:   17
# h_min:    x h_max:    x h_point:   19 v_mid:    x v_point:   17
# h_min:    x h_max:    x h_point:   19 v_mid:    x v_point:   17
# link list:15 to group: 7
# new_group: 7 POINT_GROUP:7 
# POINT_GROUP: 0
# ============= result =================
# ** Note: $stop    : /home/kevin/src/motion_capture/src/fpga/DE10_NANO_D8M_RTL/kevin/T_FIND_MULTI_POINTS.v(80)
#    Time: 2010200 ns  Iteration: 0  Instance: /T
# Break in Module T at /home/kevin/src/motion_capture/src/fpga/DE10_NANO_D8M_RTL/kevin/T_FIND_MULTI_POINTS.v line 80
# Compile of FIND_MULTI_POINTS.v was successful.
# Compile of T_FIND_MULTI_POINTS.v was successful.
# 2 compiles, 0 failed with no errors.
restart
# ** Note: (vsim-12125) Error and warning message counts have been reset to '0' because of 'restart'.
# Loading work.T
# Loading work.FIND_MULTI_POINTS
run -all
# ================= new_point ====================
# i:  0  h_min:  x  h_max:  x  h_point: 19  v:  x  v_point:  2 
# link list: 0 to group: 0
# new_group: 0 POINT_GROUP:0 
# ================= new_point ====================
# i:  0  h_min:  x  h_max:  x  h_point: 19  v:  2  v_point:  3 
# i:  1  h_min:  x  h_max:  x  h_point: 19  v:  x  v_point:  3 
# link list: 1 to group: 1
# new_group: 1 POINT_GROUP:1 
# ================= new_point ====================
# i:  0  h_min:  x  h_max:  x  h_point: 19  v:  2  v_point:  4 
# i:  1  h_min:  x  h_max:  x  h_point: 19  v:  3  v_point:  4 
# i:  2  h_min:  x  h_max:  x  h_point: 19  v:  x  v_point:  4 
# link list: 2 to group: 2
# new_group: 2 POINT_GROUP:2 
# ================= new_point ====================
# i:  0  h_min:  x  h_max:  x  h_point: 17  v:  2  v_point:  5 
# i:  1  h_min:  x  h_max:  x  h_point: 17  v:  3  v_point:  5 
