src/fpga/DE10_NANO_D8M_RTL/kevin/transcript
# Loading project motion_capture_kevin
# Compile of FIND_MULTI_POINTS.v was successful.
# Compile of T_FIND_MULTI_POINTS.v was successful.
# 2 compiles, 0 failed with no errors.
vsim work.T
# vsim work.T 
# Start time: 16:04:38 on Apr 20,2022
# Loading work.T
# Loading work.FIND_MULTI_POINTS
restart
# ** Note: (vsim-12125) Error and warning message counts have been reset to '0' because of 'restart'.
run -all
# ================== new frame ===========================
# link list:  0 to group: 0
# new_group: 0 POINT_GROUP:0 
# link list:  1 to group: 0
# link list:  2 to group: 0
# link list:  3 to group: 0
# link list:  4 to group: 0
# link list:  5 to group: 0
# link list:  6 to group: 0
# link list:  7 to group: 0
# link list:  8 to group: 0
# link list:  9 to group: 0
# link list: 10 to group: 0
# link list: 11 to group: 0
# link list: 12 to group: 0
# link list: 13 to group: 0
# link list: 14 to group: 0
# link list: 15 to group: 0
# link list: 16 to group: 1
# new_group: 1 POINT_GROUP:1 
# link list: 17 to group: 1
# link list: 18 to group: 1
# link list: 19 to group: 1
# link list: 20 to group: 2
# new_group: 2 POINT_GROUP:2 
# link list: 21 to group: 2
# link list: 22 to group: 3
# new_group: 3 POINT_GROUP:3 
# link list: 23 to group: 0
# new_group: 0 POINT_GROUP:0 
# link list: 24 to group: 1
# new_group: 1 POINT_GROUP:1 
# link list: 25 to group: 0
# link list: 26 to group: 1
# link list: 27 to group: 1
# link list: 28 to group: 2
# new_group: 2 POINT_GROUP:2 
# link list: 29 to group: 2
# link list: 30 to group: 2
# link list: 31 to group: 2
# ============= result =================
# p:  0    X: 18    Y: 11
# p:  1    X: 50    Y: 23
# p:  2    X: 35    Y: 34
# p:  3    X: 54    Y: 28
# ================== new frame ===========================
# link list:  0 to group: 0
# new_group: 0 POINT_GROUP:0 
# link list:  1 to group: 0
# link list:  2 to group: 0
# link list:  3 to group: 0
# link list:  4 to group: 0
# link list:  5 to group: 0
# link list:  6 to group: 0
# link list:  7 to group: 0
# link list:  8 to group: 0
# link list:  9 to group: 0
# link list: 10 to group: 0
# link list: 11 to group: 0
# link list: 12 to group: 0
# link list: 13 to group: 0
# link list: 14 to group: 0
# link list: 15 to group: 0
# link list: 16 to group: 1
# new_group: 1 POINT_GROUP:1 
# link list: 17 to group: 1
# link list: 18 to group: 1
# link list: 19 to group: 1
# link list: 20 to group: 2
# new_group: 2 POINT_GROUP:2 
# link list: 21 to group: 2
# link list: 22 to group: 3
# new_group: 3 POINT_GROUP:3 
# link list: 23 to group: 0
# new_group: 0 POINT_GROUP:0 
# link list: 24 to group: 1
# new_group: 1 POINT_GROUP:1 
# link list: 25 to group: 0
# link list: 26 to group: 1
# link list: 27 to group: 1
# link list: 28 to group: 2
# new_group: 2 POINT_GROUP:2 
# link list: 29 to group: 2
# link list: 30 to group: 2
# link list: 31 to group: 2
# ============= result =================
# p:  0    X: 18    Y: 11
# p:  1    X: 50    Y: 23
# p:  2    X: 35    Y: 34
# p:  3    X: 54    Y: 28
# ** Note: $stop    : /home/kevin/src/motion_capture/src/fpga/DE10_NANO_D8M_RTL/kevin/T_FIND_MULTI_POINTS.v(106)
#    Time: 4020400 ns  Iteration: 0  Instance: /T
# Break in Module T at /home/kevin/src/motion_capture/src/fpga/DE10_NANO_D8M_RTL/kevin/T_FIND_MULTI_POINTS.v line 106
# Compile of FIND_MULTI_POINTS.v was successful.
# Compile of T_FIND_MULTI_POINTS.v was successful.
# 2 compiles, 0 failed with no errors.
restart
# ** Note: (vsim-12125) Error and warning message counts have been reset to '0' because of 'restart'.
# Loading work.T
# Loading work.FIND_MULTI_POINTS
run -all
# ================== new frame ===========================
# link list:  0 to group: 0
# new_group: 0 POINT_GROUP:0 
# link list:  1 to group: 0
# link list:  2 to group: 0
# link list:  3 to group: 0
# link list:  4 to group: 0
# link list:  5 to group: 0
# link list:  6 to group: 0
# link list:  7 to group: 0
# link list:  8 to group: 0
# link list:  9 to group: 0
# link list: 10 to group: 0
# link list: 11 to group: 0
# link list: 12 to group: 0
# link list: 13 to group: 0
# link list: 14 to group: 0
# link list: 15 to group: 0
# link list: 16 to group: 1
# new_group: 1 POINT_GROUP:1 
# link list: 17 to group: 1
# link list: 18 to group: 1
# link list: 19 to group: 1
# link list: 20 to group: 2
# new_group: 2 POINT_GROUP:2 
# link list: 21 to group: 2
# link list: 22 to group: 3
# new_group: 3 POINT_GROUP:3 
# link list: 23 to group: 0
# new_group: 0 POINT_GROUP:0 
# link list: 24 to group: 1
# new_group: 1 POINT_GROUP:1 
# link list: 25 to group: 0
# link list: 26 to group: 1
# link list: 27 to group: 1
# link list: 28 to group: 2
# new_group: 2 POINT_GROUP:2 
# link list: 29 to group: 2
# link list: 30 to group: 2
# link list: 31 to group: 2
# ============= result =================
# p:  0    X: 18    Y: 11
# p:  1    X: 50    Y: 23
# p:  2    X: 35    Y: 34
# p:  3    X: 54    Y: 28
# ================== new frame ===========================
# link list:  0 to group: 0
# new_group: 0 POINT_GROUP:0 
# link list:  1 to group: 0
# link list:  2 to group: 0
# link list:  3 to group: 0
# link list:  4 to group: 0
# link list:  5 to group: 0
# link list:  6 to group: 0
# link list:  7 to group: 0
# link list:  8 to group: 0
# link list:  9 to group: 0
# link list: 10 to group: 0
# link list: 11 to group: 0
# link list: 12 to group: 0
# link list: 13 to group: 0
# link list: 14 to group: 0
# link list: 15 to group: 0
# link list: 16 to group: 1
# new_group: 1 POINT_GROUP:1 
# link list: 17 to group: 1
# link list: 18 to group: 1
# link list: 19 to group: 1
# link list: 20 to group: 2
# new_group: 2 POINT_GROUP:2 
# link list: 21 to group: 2
# link list: 22 to group: 3
# new_group: 3 POINT_GROUP:3 
# link list: 23 to group: 0
# new_group: 0 POINT_GROUP:0 
# link list: 24 to group: 1
# new_group: 1 POINT_GROUP:1 
# link list: 25 to group: 0
# link list: 26 to group: 1
# link list: 27 to group: 1
# link list: 28 to group: 2
# new_group: 2 POINT_GROUP:2 
# link list: 29 to group: 2
# link list: 30 to group: 2
# link list: 31 to group: 2
# ============= result =================
# p:  0    X: 18    Y: 11
# p:  1    X: 50    Y: 23
# p:  2    X: 35    Y: 34
# p:  3    X: 54    Y: 28
# ** Note: $stop    : /home/kevin/src/motion_capture/src/fpga/DE10_NANO_D8M_RTL/kevin/T_FIND_MULTI_POINTS.v(106)
#    Time: 4020400 ns  Iteration: 0  Instance: /T
# Break in Module T at /home/kevin/src/motion_capture/src/fpga/DE10_NANO_D8M_RTL/kevin/T_FIND_MULTI_POINTS.v line 106
restart
run -all
# ================== new frame ===========================
# link list:  0 to group: 0
# new_group: 0 POINT_GROUP:0 
# link list:  1 to group: 0
# link list:  2 to group: 0
# link list:  3 to group: 0
# link list:  4 to group: 0
# link list:  5 to group: 0
# link list:  6 to group: 0
# link list:  7 to group: 0
# link list:  8 to group: 0
# link list:  9 to group: 0
# link list: 10 to group: 0
# link list: 11 to group: 0
# link list: 12 to group: 0
# link list: 13 to group: 0
# link list: 14 to group: 0
# link list: 15 to group: 0
# link list: 16 to group: 1
# new_group: 1 POINT_GROUP:1 
# link list: 17 to group: 1
# link list: 18 to group: 1
# link list: 19 to group: 1
# link list: 20 to group: 2
# new_group: 2 POINT_GROUP:2 
# link list: 21 to group: 3
# new_group: 3 POINT_GROUP:3 
# link list: 22 to group: 0
# new_group: 0 POINT_GROUP:0 
# link list: 23 to group: 0
# link list: 24 to group: 0
# link list: 25 to group: 1
# new_group: 1 POINT_GROUP:1 
# link list: 26 to group: 1
# link list: 27 to group: 1
# link list: 28 to group: 1
# ============= result =================
# p:  0    X: 18    Y: 12
# p:  1    X: 44    Y: 28
# p:  2    X: 23    Y: 26
# p:  3    X: 23    Y: 27
# ================== new frame ===========================
# link list:  0 to group: 0
# new_group: 0 POINT_GROUP:0 
# link list:  1 to group: 0
# link list:  2 to group: 0
# link list:  3 to group: 0
# link list:  4 to group: 0
# link list:  5 to group: 0
# link list:  6 to group: 0
# link list:  7 to group: 0
# link list:  8 to group: 0
# link list:  9 to group: 0
# link list: 10 to group: 0
# link list: 11 to group: 0
# link list: 12 to group: 0
# link list: 13 to group: 0
# link list: 14 to group: 0
# link list: 15 to group: 0
# link list: 16 to group: 1
# new_group: 1 POINT_GROUP:1 
# link list: 17 to group: 1
# link list: 18 to group: 1
# link list: 19 to group: 1
# link list: 20 to group: 2
# new_group: 2 POINT_GROUP:2 
# link list: 21 to group: 3
# new_group: 3 POINT_GROUP:3 
# link list: 22 to group: 0
# new_group: 0 POINT_GROUP:0 
# link list: 23 to group: 0
# link list: 24 to group: 0
# link list: 25 to group: 1
# new_group: 1 POINT_GROUP:1 
# link list: 26 to group: 1
# link list: 27 to group: 1
# link list: 28 to group: 1
# ============= result =================
# p:  0    X: 18    Y: 12
# p:  1    X: 44    Y: 28
# p:  2    X: 23    Y: 26
# p:  3    X: 23    Y: 27
# ** Note: $stop    : /home/kevin/src/motion_capture/src/fpga/DE10_NANO_D8M_RTL/kevin/T_FIND_MULTI_POINTS.v(106)
#    Time: 4020400 ns  Iteration: 0  Instance: /T
# Break in Module T at /home/kevin/src/motion_capture/src/fpga/DE10_NANO_D8M_RTL/kevin/T_FIND_MULTI_POINTS.v line 106
restart
run -all
# ================== new frame ===========================
# link list:  0 to group: 0
# new_group: 0 POINT_GROUP:0 
# link list:  1 to group: 0
# link list:  2 to group: 0
# link list:  3 to group: 0
# link list:  4 to group: 0
# link list:  5 to group: 0
# link list:  6 to group: 0
# link list:  7 to group: 0
# link list:  8 to group: 0
# link list:  9 to group: 0
# link list: 10 to group: 0
# link list: 11 to group: 0
# link list: 12 to group: 0
# link list: 13 to group: 0
# link list: 14 to group: 0
# link list: 15 to group: 0
# link list: 16 to group: 1
# new_group: 1 POINT_GROUP:1 
# link list: 17 to group: 1
# link list: 18 to group: 1
# link list: 19 to group: 1
# link list: 20 to group: 2
# new_group: 2 POINT_GROUP:2 
# link list: 21 to group: 3
# new_group: 3 POINT_GROUP:3 
# link list: 22 to group: 0
# new_group: 0 POINT_GROUP:0 
# link list: 23 to group: 0
# link list: 24 to group: 0
# link list: 25 to group: 1
# new_group: 1 POINT_GROUP:1 
# link list: 26 to group: 1
# link list: 27 to group: 1
# link list: 28 to group: 1
# ============= result =================
# p:  0    X: 18    Y: 12
# p:  1    X: 44    Y: 28
# p:  2    X: 24    Y: 26
# p:  3    X: 23    Y: 27
# ================== new frame ===========================
# link list:  0 to group: 0
# new_group: 0 POINT_GROUP:0 
# link list:  1 to group: 0
# link list:  2 to group: 0
# link list:  3 to group: 0
# link list:  4 to group: 0
# link list:  5 to group: 0
# link list:  6 to group: 0
# link list:  7 to group: 0
# link list:  8 to group: 0
# link list:  9 to group: 0
# link list: 10 to group: 0
# link list: 11 to group: 0
# link list: 12 to group: 0
# link list: 13 to group: 0
# link list: 14 to group: 0
# link list: 15 to group: 0
# link list: 16 to group: 1
# new_group: 1 POINT_GROUP:1 
# link list: 17 to group: 1
# link list: 18 to group: 1
# link list: 19 to group: 1
# link list: 20 to group: 2
# new_group: 2 POINT_GROUP:2 
# link list: 21 to group: 3
# new_group: 3 POINT_GROUP:3 
# link list: 22 to group: 0
# new_group: 0 POINT_GROUP:0 
# link list: 23 to group: 0
# link list: 24 to group: 0
# link list: 25 to group: 1
# new_group: 1 POINT_GROUP:1 
# link list: 26 to group: 1
# link list: 27 to group: 1
# link list: 28 to group: 1
# ============= result =================
# p:  0    X: 18    Y: 12
# p:  1    X: 44    Y: 28
# p:  2    X: 24    Y: 26
# p:  3    X: 23    Y: 27
# ** Note: $stop    : /home/kevin/src/motion_capture/src/fpga/DE10_NANO_D8M_RTL/kevin/T_FIND_MULTI_POINTS.v(106)
#    Time: 4020400 ns  Iteration: 0  Instance: /T
# Break in Module T at /home/kevin/src/motion_capture/src/fpga/DE10_NANO_D8M_RTL/kevin/T_FIND_MULTI_POINTS.v line 106
restart
run -all
# ================== new frame ===========================
# link list:  0 to group: 0
# new_group: 0 POINT_GROUP:0 
# link list:  1 to group: 0
# link list:  2 to group: 0
# link list:  3 to group: 0
# link list:  4 to group: 0
# link list:  5 to group: 0
# link list:  6 to group: 0
# link list:  7 to group: 0
# link list:  8 to group: 0
# link list:  9 to group: 0
# link list: 10 to group: 0
# link list: 11 to group: 0
# link list: 12 to group: 0
# link list: 13 to group: 0
# link list: 14 to group: 0
# link list: 15 to group: 0
# link list: 16 to group: 1
# new_group: 1 POINT_GROUP:1 
# link list: 17 to group: 2
# new_group: 2 POINT_GROUP:2 
# link list: 18 to group: 2
# link list: 19 to group: 2
# link list: 20 to group: 2
# ============= result =================
# p:  0    X: 17    Y:  9
# p:  1    X: 24    Y: 26
# p:  2    X: 23    Y: 28
# p:  3    X:  0    Y:  0
# ================== new frame ===========================
# link list:  0 to group: 0
# new_group: 0 POINT_GROUP:0 
# link list:  1 to group: 0
# link list:  2 to group: 0
# link list:  3 to group: 0
# link list:  4 to group: 0
# link list:  5 to group: 0
# link list:  6 to group: 0
# link list:  7 to group: 0
# link list:  8 to group: 0
# link list:  9 to group: 0
# link list: 10 to group: 0
# link list: 11 to group: 0
# link list: 12 to group: 0
# link list: 13 to group: 0
# link list: 14 to group: 0
# link list: 15 to group: 0
# link list: 16 to group: 1
# new_group: 1 POINT_GROUP:1 
# link list: 17 to group: 2
# new_group: 2 POINT_GROUP:2 
# link list: 18 to group: 2
# link list: 19 to group: 2
# link list: 20 to group: 2
# ============= result =================
# p:  0    X: 17    Y:  9
# p:  1    X: 24    Y: 26
# p:  2    X: 23    Y: 28
# p:  3    X:  0    Y:  0
# ** Note: $stop    : /home/kevin/src/motion_capture/src/fpga/DE10_NANO_D8M_RTL/kevin/T_FIND_MULTI_POINTS.v(106)
#    Time: 4020400 ns  Iteration: 0  Instance: /T
# Break in Module T at /home/kevin/src/motion_capture/src/fpga/DE10_NANO_D8M_RTL/kevin/T_FIND_MULTI_POINTS.v line 106
# Compile of FIND_MULTI_POINTS.v was successful.
# Compile of T_FIND_MULTI_POINTS.v was successful.
# 2 compiles, 0 failed with no errors.
restart
# ** Note: (vsim-12125) Error and warning message counts have been reset to '0' because of 'restart'.
# Loading work.T
# Loading work.FIND_MULTI_POINTS
run -all
# ================== start ===========================
# ============= result =================
# p:  0    X: 17    Y:  9
# p:  1    X: 24    Y: 26
# p:  2    X: 23    Y: 28
# p:  3    X:  0    Y:  0
# ============= result =================
# p:  0    X: 17    Y:  9
# p:  1    X: 24    Y: 26
# p:  2    X: 23    Y: 28
# p:  3    X:  0    Y:  0
# ** Note: $stop    : /home/kevin/src/motion_capture/src/fpga/DE10_NANO_D8M_RTL/kevin/T_FIND_MULTI_POINTS.v(108)
#    Time: 4020400 ns  Iteration: 0  Instance: /T
# Break in Module T at /home/kevin/src/motion_capture/src/fpga/DE10_NANO_D8M_RTL/kevin/T_FIND_MULTI_POINTS.v line 108
restart
run -all
# ================== start ===========================
# ============= result =================
# p:  0    X: 17    Y:  9
# p:  1    X: 24    Y: 26
# p:  2    X: 23    Y: 28
# p:  3    X:  0    Y:  0
# ============= result =================
# p:  0    X: 17    Y:  9
# p:  1    X: 24    Y: 26
# p:  2    X: 23    Y: 28
# p:  3    X:  0    Y:  0
# ** Note: $stop    : /home/kevin/src/motion_capture/src/fpga/DE10_NANO_D8M_RTL/kevin/T_FIND_MULTI_POINTS.v(108)
#    Time: 4020400 ns  Iteration: 0  Instance: /T
# Break in Module T at /home/kevin/src/motion_capture/src/fpga/DE10_NANO_D8M_RTL/kevin/T_FIND_MULTI_POINTS.v line 108
# Compile of FIND_MULTI_POINTS.v was successful.
# Compile of T_FIND_MULTI_POINTS.v was successful.
# 2 compiles, 0 failed with no errors.
restart
# ** Note: (vsim-12125) Error and warning message counts have been reset to '0' because of 'restart'.
# Loading work.T
# Loading work.FIND_MULTI_POINTS
run -all
# ================== start ===========================
# ================= new_point ====================
# i:  0  h_min:  x  h_max:  x  h_point: 19  v:  x  v_point:  2 
# ================= new_point ====================
# i:  0  h_min: 11  h_max: 27  h_point: 19  v:  2  v_point:  3 
# ================= new_point ====================
# i:  0  h_min: 11  h_max: 27  h_point: 19  v:  3  v_point:  4 
# ================= new_point ====================
# i:  0  h_min: 11  h_max: 27  h_point: 17  v:  4  v_point:  5 
# ================= new_point ====================
# i:  0  h_min:  6  h_max: 27  h_point: 17  v:  5  v_point:  6 
# ================= new_point ====================
# i:  0  h_min:  6  h_max: 27  h_point: 17  v:  6  v_point:  7 
# ================= new_point ====================
# i:  0  h_min:  6  h_max: 27  h_point: 17  v:  7  v_point:  8 
# ================= new_point ====================
# i:  0  h_min:  6  h_max: 27  h_point: 17  v:  8  v_point:  9 
# ================= new_point ====================
# i:  0  h_min:  6  h_max: 27  h_point: 17  v:  9  v_point: 10 
# ================= new_point ====================
# i:  0  h_min:  6  h_max: 27  h_point: 17  v: 10  v_point: 11 
# ================= new_point ====================
# i:  0  h_min:  6  h_max: 27  h_point: 17  v: 11  v_point: 12 
# ================= new_point ====================
# i:  0  h_min:  6  h_max: 27  h_point: 17  v: 12  v_point: 13 
# ================= new_point ====================
# i:  0  h_min:  6  h_max: 27  h_point: 19  v: 13  v_point: 14 
# ================= new_point ====================
# i:  0  h_min: 11  h_max: 27  h_point: 19  v: 14  v_point: 15 
# ================= new_point ====================
# i:  0  h_min: 11  h_max: 27  h_point: 19  v: 15  v_point: 16 
# ================= new_point ====================
# i:  0  h_min: 11  h_max: 27  h_point: 19  v: 16  v_point: 17 
# ================= new_point ====================
# i:  0  h_min: 11  h_max: 27  h_point: 24  v: 17  v_point: 26 
# i:  1  h_min:  x  h_max:  x  h_point: 24  v:  x  v_point: 26 
# ================= new_point ====================
# i:  0  h_min: 11  h_max: 27  h_point: 23  v: 17  v_point: 27 
# i:  1  h_min: 23  h_max: 24  h_point: 23  v: 26  v_point: 27 
# i:  2  h_min:  x  h_max:  x  h_point: 23  v:  x  v_point: 27 
# ================= new_point ====================
# i:  0  h_min: 11  h_max: 27  h_point: 23  v: 17  v_point: 28 
# i:  1  h_min: 23  h_max: 24  h_point: 23  v: 26  v_point: 28 
# i:  2  h_min: 19  h_max: 27  h_point: 23  v: 27  v_point: 28 
# ================= new_point ====================
# i:  0  h_min: 11  h_max: 27  h_point: 23  v: 17  v_point: 29 
# i:  1  h_min: 23  h_max: 24  h_point: 23  v: 26  v_point: 29 
# i:  2  h_min: 19  h_max: 27  h_point: 23  v: 28  v_point: 29 
# ================= new_point ====================
# i:  0  h_min: 11  h_max: 27  h_point: 23  v: 17  v_point: 30 
# i:  1  h_min: 23  h_max: 24  h_point: 23  v: 26  v_point: 30 
# i:  2  h_min: 19  h_max: 27  h_point: 23  v: 29  v_point: 30 
# ============= result =================
# p:  0    X: 17    Y:  9
# p:  1    X: 24    Y: 26
# p:  2    X: 23    Y: 28
# p:  3    X:  0    Y:  0
# ================= new_point ====================
# i:  0  h_min: 11  h_max: 27  h_point: 19  v: 17  v_point:  2 
# ================= new_point ====================
# i:  0  h_min: 11  h_max: 27  h_point: 19  v:  2  v_point:  3 
# ================= new_point ====================
# i:  0  h_min: 11  h_max: 27  h_point: 19  v:  3  v_point:  4 
# ================= new_point ====================
# i:  0  h_min: 11  h_max: 27  h_point: 17  v:  4  v_point:  5 
# ================= new_point ====================
# i:  0  h_min:  6  h_max: 27  h_point: 17  v:  5  v_point:  6 
# ================= new_point ====================
# i:  0  h_min:  6  h_max: 27  h_point: 17  v:  6  v_point:  7 
# ================= new_point ====================
# i:  0  h_min:  6  h_max: 27  h_point: 17  v:  7  v_point:  8 
# ================= new_point ====================
# i:  0  h_min:  6  h_max: 27  h_point: 17  v:  8  v_point:  9 
# ================= new_point ====================
# i:  0  h_min:  6  h_max: 27  h_point: 17  v:  9  v_point: 10 
# ================= new_point ====================
# i:  0  h_min:  6  h_max: 27  h_point: 17  v: 10  v_point: 11 
# ================= new_point ====================
# i:  0  h_min:  6  h_max: 27  h_point: 17  v: 11  v_point: 12 
# ================= new_point ====================
# i:  0  h_min:  6  h_max: 27  h_point: 17  v: 12  v_point: 13 
# ================= new_point ====================
# i:  0  h_min:  6  h_max: 27  h_point: 19  v: 13  v_point: 14 
# ================= new_point ====================
# i:  0  h_min: 11  h_max: 27  h_point: 19  v: 14  v_point: 15 
# ================= new_point ====================
# i:  0  h_min: 11  h_max: 27  h_point: 19  v: 15  v_point: 16 
# ================= new_point ====================
# i:  0  h_min: 11  h_max: 27  h_point: 19  v: 16  v_point: 17 
# ================= new_point ====================
# i:  0  h_min: 11  h_max: 27  h_point: 24  v: 17  v_point: 26 
# i:  1  h_min: 23  h_max: 24  h_point: 24  v: 26  v_point: 26 
# ================= new_point ====================
# i:  0  h_min: 11  h_max: 27  h_point: 23  v: 17  v_point: 27 
# i:  1  h_min: 23  h_max: 24  h_point: 23  v: 26  v_point: 27 
# i:  2  h_min: 19  h_max: 27  h_point: 23  v: 30  v_point: 27 
# ================= new_point ====================
# i:  0  h_min: 11  h_max: 27  h_point: 23  v: 17  v_point: 28 
# i:  1  h_min: 23  h_max: 24  h_point: 23  v: 26  v_point: 28 
# i:  2  h_min: 19  h_max: 27  h_point: 23  v: 27  v_point: 28 
# ================= new_point ====================
# i:  0  h_min: 11  h_max: 27  h_point: 23  v: 17  v_point: 29 
# i:  1  h_min: 23  h_max: 24  h_point: 23  v: 26  v_point: 29 
# i:  2  h_min: 19  h_max: 27  h_point: 23  v: 28  v_point: 29 
# ================= new_point ====================
# i:  0  h_min: 11  h_max: 27  h_point: 23  v: 17  v_point: 30 
# i:  1  h_min: 23  h_max: 24  h_point: 23  v: 26  v_point: 30 
# i:  2  h_min: 19  h_max: 27  h_point: 23  v: 29  v_point: 30 
# ============= result =================
# p:  0    X: 17    Y:  9
# p:  1    X: 24    Y: 26
# p:  2    X: 23    Y: 28
# p:  3    X:  0    Y:  0
# ** Note: $stop    : /home/kevin/src/motion_capture/src/fpga/DE10_NANO_D8M_RTL/kevin/T_FIND_MULTI_POINTS.v(108)
#    Time: 4020400 ns  Iteration: 0  Instance: /T
# Break in Module T at /home/kevin/src/motion_capture/src/fpga/DE10_NANO_D8M_RTL/kevin/T_FIND_MULTI_POINTS.v line 108
restart
run -all
# ================== start ===========================
# ================= new_point ====================
# i:  0  h_min:  x  h_max:  x  h_point: 19  v:  x  v_point:  2 
# ================= new_point ====================
# i:  0  h_min: 11  h_max: 27  h_point: 19  v:  2  v_point:  3 
# ================= new_point ====================
# i:  0  h_min: 11  h_max: 27  h_point: 19  v:  3  v_point:  4 
# ================= new_point ====================
# i:  0  h_min: 11  h_max: 27  h_point: 17  v:  4  v_point:  5 
# ================= new_point ====================
# i:  0  h_min:  6  h_max: 27  h_point: 17  v:  5  v_point:  6 
# ================= new_point ====================
# i:  0  h_min:  6  h_max: 27  h_point: 17  v:  6  v_point:  7 
# ================= new_point ====================
# i:  0  h_min:  6  h_max: 27  h_point: 17  v:  7  v_point:  8 
# ================= new_point ====================
# i:  0  h_min:  6  h_max: 27  h_point: 17  v:  8  v_point:  9 
# ================= new_point ====================
# i:  0  h_min:  6  h_max: 27  h_point: 17  v:  9  v_point: 10 
# ================= new_point ====================
# i:  0  h_min:  6  h_max: 27  h_point: 17  v: 10  v_point: 11 
# ================= new_point ====================
# i:  0  h_min:  6  h_max: 27  h_point: 17  v: 11  v_point: 12 
# ================= new_point ====================
# i:  0  h_min:  6  h_max: 27  h_point: 17  v: 12  v_point: 13 
# ================= new_point ====================
# i:  0  h_min:  6  h_max: 27  h_point: 19  v: 13  v_point: 14 
# ================= new_point ====================
# i:  0  h_min: 11  h_max: 27  h_point: 19  v: 14  v_point: 15 
# ================= new_point ====================
# i:  0  h_min: 11  h_max: 27  h_point: 19  v: 15  v_point: 16 
# ================= new_point ====================
# i:  0  h_min: 11  h_max: 27  h_point: 19  v: 16  v_point: 17 
# ================= new_point ====================
# i:  0  h_min: 11  h_max: 27  h_point: 23  v: 17  v_point: 26 
# i:  1  h_min:  x  h_max:  x  h_point: 23  v:  x  v_point: 26 
# ================= new_point ====================
# i:  0  h_min: 11  h_max: 27  h_point: 23  v: 17  v_point: 27 
# i:  1  h_min: 23  h_max: 23  h_point: 23  v: 26  v_point: 27 
# i:  2  h_min:  x  h_max:  x  h_point: 23  v:  x  v_point: 27 
# ================= new_point ====================
# i:  0  h_min: 11  h_max: 27  h_point: 23  v: 17  v_point: 28 
# i:  1  h_min: 23  h_max: 23  h_point: 23  v: 26  v_point: 28 
# i:  2  h_min: 19  h_max: 27  h_point: 23  v: 27  v_point: 28 
# ================= new_point ====================
# i:  0  h_min: 11  h_max: 27  h_point: 23  v: 17  v_point: 29 
# i:  1  h_min: 23  h_max: 23  h_point: 23  v: 26  v_point: 29 
# i:  2  h_min: 19  h_max: 27  h_point: 23  v: 28  v_point: 29 
# ================= new_point ====================
# i:  0  h_min: 11  h_max: 27  h_point: 23  v: 17  v_point: 30 
# i:  1  h_min: 23  h_max: 23  h_point: 23  v: 26  v_point: 30 
# i:  2  h_min: 19  h_max: 27  h_point: 23  v: 29  v_point: 30 
# ============= result =================
# p:  0    X: 17    Y:  9
# p:  1    X: 23    Y: 26
# p:  2    X: 23    Y: 28
# p:  3    X:  0    Y:  0
# ================= new_point ====================
# i:  0  h_min: 11  h_max: 27  h_point: 19  v: 17  v_point:  2 
# ================= new_point ====================
# i:  0  h_min: 11  h_max: 27  h_point: 19  v:  2  v_point:  3 
# ================= new_point ====================
# i:  0  h_min: 11  h_max: 27  h_point: 19  v:  3  v_point:  4 
# ================= new_point ====================
# i:  0  h_min: 11  h_max: 27  h_point: 17  v:  4  v_point:  5 
# ================= new_point ====================
# i:  0  h_min:  6  h_max: 27  h_point: 17  v:  5  v_point:  6 
# ================= new_point ====================
# i:  0  h_min:  6  h_max: 27  h_point: 17  v:  6  v_point:  7 
# ================= new_point ====================
# i:  0  h_min:  6  h_max: 27  h_point: 17  v:  7  v_point:  8 
# ================= new_point ====================
# i:  0  h_min:  6  h_max: 27  h_point: 17  v:  8  v_point:  9 
# ================= new_point ====================
# i:  0  h_min:  6  h_max: 27  h_point: 17  v:  9  v_point: 10 
# ================= new_point ====================
# i:  0  h_min:  6  h_max: 27  h_point: 17  v: 10  v_point: 11 
# ================= new_point ====================
# i:  0  h_min:  6  h_max: 27  h_point: 17  v: 11  v_point: 12 
# ================= new_point ====================
# i:  0  h_min:  6  h_max: 27  h_point: 17  v: 12  v_point: 13 
# ================= new_point ====================
# i:  0  h_min:  6  h_max: 27  h_point: 19  v: 13  v_point: 14 
# ================= new_point ====================
# i:  0  h_min: 11  h_max: 27  h_point: 19  v: 14  v_point: 15 
# ================= new_point ====================
# i:  0  h_min: 11  h_max: 27  h_point: 19  v: 15  v_point: 16 
# ================= new_point ====================
# i:  0  h_min: 11  h_max: 27  h_point: 19  v: 16  v_point: 17 
# ================= new_point ====================
# i:  0  h_min: 11  h_max: 27  h_point: 23  v: 17  v_point: 26 
# i:  1  h_min: 23  h_max: 23  h_point: 23  v: 26  v_point: 26 
# ================= new_point ====================
# i:  0  h_min: 11  h_max: 27  h_point: 23  v: 17  v_point: 27 
# i:  1  h_min: 23  h_max: 23  h_point: 23  v: 26  v_point: 27 
# i:  2  h_min: 19  h_max: 27  h_point: 23  v: 30  v_point: 27 
# ================= new_point ====================
# i:  0  h_min: 11  h_max: 27  h_point: 23  v: 17  v_point: 28 
# i:  1  h_min: 23  h_max: 23  h_point: 23  v: 26  v_point: 28 
# i:  2  h_min: 19  h_max: 27  h_point: 23  v: 27  v_point: 28 
# ================= new_point ====================
# i:  0  h_min: 11  h_max: 27  h_point: 23  v: 17  v_point: 29 
# i:  1  h_min: 23  h_max: 23  h_point: 23  v: 26  v_point: 29 
# i:  2  h_min: 19  h_max: 27  h_point: 23  v: 28  v_point: 29 
# ================= new_point ====================
# i:  0  h_min: 11  h_max: 27  h_point: 23  v: 17  v_point: 30 
# i:  1  h_min: 23  h_max: 23  h_point: 23  v: 26  v_point: 30 
# i:  2  h_min: 19  h_max: 27  h_point: 23  v: 29  v_point: 30 
# ============= result =================
# p:  0    X: 17    Y:  9
# p:  1    X: 23    Y: 26
# p:  2    X: 23    Y: 28
# p:  3    X:  0    Y:  0
# ** Note: $stop    : /home/kevin/src/motion_capture/src/fpga/DE10_NANO_D8M_RTL/kevin/T_FIND_MULTI_POINTS.v(108)
#    Time: 4020400 ns  Iteration: 0  Instance: /T
# Break in Module T at /home/kevin/src/motion_capture/src/fpga/DE10_NANO_D8M_RTL/kevin/T_FIND_MULTI_POINTS.v line 108
restart
run -all
# ================== start ===========================
# ================= new_point ====================
# i:  0  h_min:  x  h_max:  x  h_point: 19  v:  x  v_point:  2 
# ================= new_point ====================
# i:  0  h_min: 11  h_max: 27  h_point: 19  v:  2  v_point:  3 
# ================= new_point ====================
# i:  0  h_min: 11  h_max: 27  h_point: 19  v:  3  v_point:  4 
# ================= new_point ====================
# i:  0  h_min: 11  h_max: 27  h_point: 17  v:  4  v_point:  5 
# ================= new_point ====================
# i:  0  h_min:  6  h_max: 27  h_point: 17  v:  5  v_point:  6 
# ================= new_point ====================
# i:  0  h_min:  6  h_max: 27  h_point: 17  v:  6  v_point:  7 
# ================= new_point ====================
# i:  0  h_min:  6  h_max: 27  h_point: 17  v:  7  v_point:  8 
# ================= new_point ====================
# i:  0  h_min:  6  h_max: 27  h_point: 17  v:  8  v_point:  9 
# ================= new_point ====================
# i:  0  h_min:  6  h_max: 27  h_point: 17  v:  9  v_point: 10 
# ================= new_point ====================
# i:  0  h_min:  6  h_max: 27  h_point: 17  v: 10  v_point: 11 
# ================= new_point ====================
# i:  0  h_min:  6  h_max: 27  h_point: 17  v: 11  v_point: 12 
# ================= new_point ====================
# i:  0  h_min:  6  h_max: 27  h_point: 17  v: 12  v_point: 13 
